{
	//Steam game functionality
	"steam": {"param": "0", "prefix": "1", "script": "RunSteam.exe"},
	"steam game": {"param": "1", "prefix": "1", "script": "RunSteam.exe"},
	
	//Firefox and internet functionality
	"internet": {"param": "0", "prefix": "1", "script": "RunFirefox.exe"},
	"today's webcomics": {"param": "0", "prefix": "1", "script": "RunFirefoxComicsToday.exe"},
	"search for": {"param": "1", "prefix": "1", "script": "RunFirefoxSearch.exe"},
	"image search for": {"param": "1", "prefix": "1", "script": "RunFirefoxImageSearch.exe"},

	//Volume control functionality
	"increase volume by": {"param": "1", "prefix": "0", "script": "IncreaseVolume.exe"},
	"increase volume": {"param": "0", "prefix": "0", "script": "IncreaseVolume.exe"},
	"decrease volume by": {"param": "1", "prefix": "0", "script": "DecreaseVolume.exe"},
	"decrease volume": {"param": "0", "prefix": "0", "script": "DecreaseVolume.exe"},
	"mute volume": {"param": "0", "prefix": "0", "script": "MuteVolume.exe"},
	"unmute volume": {"param": "0", "prefix": "0", "script": "UnmuteVolume.exe"},
	"toggle volume": {"param": "0", "prefix": "0", "script": "ToggleVolume.exe"},

	//Miscellaneous functionality
	"execute order sixty six": {"param": "0", "prefix": "0", "script": "ExecuteOrder66.exe"},
	"command console": {"param": "0", "prefix": "1", "script": "RunCommandConsole.exe"}

}