{
	"Shining Force": 34270,
	"Shining Force II": 34270,
	"Shining Force III": 16082711894120464384,
	"Pokemon Uranium": 16613403812765368320,
	"Bastion": 107100,
	"David": 346180,
	"The Binding of Isaac": 113200,
	"Audiosurf": 12900,
	"Cave Story": 200900,
	"Q.U.B.E.": 203730,
	"FTL: Faster Than Light": 212680,
	"Thomas Was Alone": 220780,
	"Super Hexagon": 221640,
	"Starseed Pilgrim": 230980,
	"Bionic Dues": 238910,
	"Papers, Please": 239030,
	"Spelunky": 239350,
	"140": 242820,
	"Crypt of the NecroDancer": 247080,
	"Risk of Rain": 248820,
	"Race The Sun": 253030,
	"Tower of Guns": 266110,
	"Braid": 26800,
	"Heavy Bullets": 297120,
	"FINAL FANTASY VII": 39140,
	"Super Meat Boy": 40800,
	"Nuclear Throne": 242680,
	"LISA": 335670,
	"Downwell": 360740,
	"Undertale": 391540,
	"Dark Souls: Prepare to Die Edition": 211420,
	"Pony Island": 405640,
	"Enter the Gungeon": 311690,
}